
source code:
------------
var a , b , c ;
begin
  a := 1 ;
  b := 2 ;
  c := a + b ;
end.

source code without comments:
-----------------------------
var a , b , c ;
begin
  a := 1 ;
  b := 2 ;
  c := a + b ;
end.

tokens:
-------
var          29
a            2
,            17
b            2
,            17
c            2
;            18
begin        21
a            2
:=           20
1            3
;            18
b            2
:=           20
2            3
;            18
c            2
:=           20
a            2
+            4
b            2
;            18
end          22
.            19
